0 0 0 0 0 0 0 ff9f43 ff9f43 ff9f43 ff9f43 0 0 0 0 0 
0 0 0 0 0 ff9f43 ff9f43 ff9f43 ff9f43 ff9f43 ff9f43 ff9f43 0 0 0 0 
0 0 0 0 ff9f43 ff9f43 f83700 f83700 f83700 ff9f43 ff9f43 f83700 0 0 0 0 
0 0 0 ff9f43 ff9f43 f83700 f83700 f83700 f83700 f83700 ff9f43 f83700 0 0 0 0 
0 0 ff9f43 ff9f43 ff9f43 f83700 f83700 f83700 f83700 f83700 ff9f43 f83700 ffffff ffffff ffffff 0 
0 ff9f43 ff9f43 ff9f43 ff9f43 f83700 f83700 f83700 f83700 f83700 ff9f43 ffffff ffffff ffffff ffffff ffffff 
ff9f43 ff9f43 ff9f43 ff9f43 ff9f43 ff9f43 f83700 f83700 f83700 ff9f43 ff9f43 ffffff ffffff ffffff ffffff ffffff 
ff9f43 ff9f43 ff9f43 ff9f43 ff9f43 ff9f43 ff9f43 ff9f43 ff9f43 ff9f43 ff9f43 ffffff ffffff ffffff ffffff ffffff 
ff9f43 ff9f43 f83700 f83700 ff9f43 ff9f43 ff9f43 ff9f43 ff9f43 ff9f43 ff9f43 ffffff ffffff ffffff ffffff ffffff 
ff9f43 f83700 f83700 f83700 f83700 ff9f43 ff9f43 ff9f43 ff9f43 ff9f43 ff9f43 ffffff ffffff ffffff ffffff ff9f43 
0 f83700 f83700 f83700 f83700 ff9f43 ff9f43 ff9f43 ff9f43 ff9f43 ff9f43 ffffff ffffff ff9f43 ff9f43 ffffff 
0 0 f83700 f83700 f83700 ff9f43 ff9f43 ff9f43 ff9f43 ff9f43 ff9f43 f83700 ffffff ffffff ffffff 0 
0 0 0 f83700 ff9f43 ff9f43 ff9f43 f83700 f83700 ff9f43 ff9f43 f83700 0 0 0 0 
0 0 0 0 ff9f43 ff9f43 ff9f43 f83700 f83700 f83700 ff9f43 f83700 0 0 0 0 
0 0 0 0 0 ff9f43 ff9f43 ff9f43 f83700 f83700 ff9f43 ff9f43 0 0 0 0 
0 0 0 0 0 0 0 ff9f43 ff9f43 ff9f43 ff9f43 0 0 0 0 0 
